…
```r
dplot_ecc_sd <- dp %>% group_by(sub,targetLoc,ISI) %>% summarize(dPrime = mean(dPrime))
```

```
## `summarise()` has grouped output by 'sub', 'targetLoc'. You can override using
## the `.groups` argument.
```

```r
dplot_ecc_sd
```

```
## # A tibble: 324 × 4
## # Groups:   sub, targetLoc [108]
##    sub   targetLoc ISI   dPrime
##    <chr> <fct>     <fct>  <dbl>
##  1 s001  0         11    0.416 
##  2 s001  0         23    0     
##  3 s001  0         35    2.30  
##  4 s001  3         11    0.416 
##  5 s001  3         23    0.734 
##  6 s001  3         35    1.88  
##  7 s001  6         11    0.0972
##  8 s001  6         23    1.05  
##  9 s001  6         35    1.57  
## 10 s001  9         11    0.319 
## # ℹ 314 more rows
```
…
