Replication of Study 1 by Yeshurun & Levy (2003). Transient spatial attention degrades temporal resolution. Psychological Science
…
dplot_stat_ISI <- dp %>% group_by(sub,cue,ISI) %>% summarize(dPrime = mean(dPrime))

`summarise()` has grouped output by 'sub', 'cue'. You can override using the
`.groups` argument.

dplot_ecc_sd <- dp %>% group_by(sub,targetLoc,ISI) %>% summarize(dPrime = mean(dPrime))

`summarise()` has grouped output by 'sub', 'targetLoc'. You can override using
the `.groups` argument.

dplot_ecc_sd

# A tibble: 90 × 4
# Groups:   sub, targetLoc [30]
   sub   targetLoc ISI   dPrime
   <chr> <fct>     <fct>  <dbl>
 1 s001  0         11     0    
 2 s001  0         23     0    
 3 s001  0         35     0    
 4 s001  3         11    -0.832
 5 s001  3         23     0    
 6 s001  3         35    -0.416
 7 s001  6         11    -0.319
 8 s001  6         23     0    
 9 s001  6         35     0    
10 s001  9         11     0    
# ℹ 80 more rows
…
